[
  {
    "cpu": ${fargate_cpu},
    "image": "${app_image}",
    "memory": ${fargate_memory},
    "name": "${name}",
    "networkMode": "awsvpc",
    "logConfiguration": {
      "logDriver": "awslogs",
      "options": {
        "awslogs-group": "${log_group_name}",
        "awslogs-region": "${aws_region}",
        "awslogs-stream-prefix": "/app"
      }
    },
    "portMappings": [
      {
        "containerPort": ${container_port},
        "hostPort": ${host_port}
      }
    ]
  }
]
